{
    "extension": "linecount",
    "version": "0.1.7",
    "workspace": "c:\\Users\\D067654\\OneDrive - SAP SE\\Documents\\SAPAutomotive\\IAA\\Sources\\maasiaa",
    "linecount": [
        {
            "version": "0.1.7",
            "counttime": "2019-08-28 10:12:48",
            "filesum": 184,
            "codesum": 61334,
            "commentsum": 344,
            "blanksum": 667,
            "filelist": [
                {
                    "blank": 3,
                    "code": 12,
                    "comment": 0,
                    "filename": "'~\\.npm-global'\\modernizr"
                },
                {
                    "blank": 0,
                    "code": 7,
                    "comment": 0,
                    "filename": "'~\\.npm-global'\\modernizr.cmd"
                },
                {
                    "blank": 3,
                    "code": 12,
                    "comment": 0,
                    "filename": "'~\\.npm-global'\\serve"
                },
                {
                    "blank": 0,
                    "code": 7,
                    "comment": 0,
                    "filename": "'~\\.npm-global'\\serve.cmd"
                },
                {
                    "blank": 0,
                    "code": 7,
                    "comment": 0,
                    "filename": ".editorconfig"
                },
                {
                    "blank": 3,
                    "code": 18,
                    "comment": 0,
                    "filename": ".gitignore"
                },
                {
                    "blank": 0,
                    "code": 5,
                    "comment": 0,
                    "filename": "babel.config.js"
                },
                {
                    "blank": 0,
                    "code": 1,
                    "comment": 0,
                    "filename": "dist\\css\\app.c6c2838b.css"
                },
                {
                    "blank": 0,
                    "code": 1,
                    "comment": 0,
                    "filename": "dist\\css\\chunk-vendors.9a45d257.css"
                },
                {
                    "filename": "dist\\img\\airplane.9361be26.png",
                    "isbinaryfile": true,
                    "blank": 0,
                    "code": 0,
                    "comment": 0
                },
                {
                    "filename": "dist\\img\\icons\\sapicon.png",
                    "isbinaryfile": true,
                    "blank": 0,
                    "code": 0,
                    "comment": 0
                },
                {
                    "filename": "dist\\img\\manonescalator.65a8c72c.png",
                    "isbinaryfile": true,
                    "blank": 0,
                    "code": 0,
                    "comment": 0
                },
                {
                    "blank": 0,
                    "code": 39,
                    "comment": 0,
                    "filename": "dist\\img\\mhplogo.cb2198ec.svg"
                },
                {
                    "filename": "dist\\img\\sap.9632492e.png",
                    "isbinaryfile": true,
                    "blank": 0,
                    "code": 0,
                    "comment": 0
                },
                {
                    "blank": 0,
                    "code": 1,
                    "comment": 0,
                    "filename": "dist\\img\\saplogo.b0844d5f.svg"
                },
                {
                    "filename": "dist\\img\\subway.48fe93b9.png",
                    "isbinaryfile": true,
                    "blank": 0,
                    "code": 0,
                    "comment": 0
                },
                {
                    "filename": "dist\\img\\test2stop.51b32795.gif",
                    "isbinaryfile": true,
                    "blank": 0,
                    "code": 0,
                    "comment": 0
                },
                {
                    "filename": "dist\\img\\walkingintrain.20be45ac.png",
                    "isbinaryfile": true,
                    "blank": 0,
                    "code": 0,
                    "comment": 0
                },
                {
                    "blank": 0,
                    "code": 1,
                    "comment": 0,
                    "filename": "dist\\index.html"
                },
                {
                    "blank": 0,
                    "code": 1,
                    "comment": 1,
                    "filename": "dist\\js\\about.a9645ca0.js"
                },
                {
                    "blank": 0,
                    "code": 1,
                    "comment": 0,
                    "filename": "dist\\js\\about.a9645ca0.js.map"
                },
                {
                    "blank": 0,
                    "code": 1,
                    "comment": 1,
                    "filename": "dist\\js\\app.69532178.js"
                },
                {
                    "blank": 0,
                    "code": 1,
                    "comment": 0,
                    "filename": "dist\\js\\app.69532178.js.map"
                },
                {
                    "blank": 0,
                    "code": 6,
                    "comment": 25,
                    "filename": "dist\\js\\chunk-vendors.72b890ea.js"
                },
                {
                    "blank": 0,
                    "code": 1,
                    "comment": 0,
                    "filename": "dist\\js\\chunk-vendors.72b890ea.js.map"
                },
                {
                    "blank": 0,
                    "code": 20,
                    "comment": 0,
                    "filename": "dist\\manifest.json"
                },
                {
                    "filename": "dist\\media\\droneshot.138a4c5a.mp4",
                    "isbinaryfile": true,
                    "blank": 0,
                    "code": 0,
                    "comment": 0
                },
                {
                    "filename": "dist\\media\\london_nighttraffic.47b8eaf2.mp4",
                    "isbinaryfile": true,
                    "blank": 0,
                    "code": 0,
                    "comment": 0
                },
                {
                    "blank": 0,
                    "code": 78,
                    "comment": 0,
                    "filename": "dist\\precache-manifest.dd56744b3903ee682d0a547beb3dd82d.js"
                },
                {
                    "blank": 0,
                    "code": 2,
                    "comment": 0,
                    "filename": "dist\\robots.txt"
                },
                {
                    "filename": "dist\\sapicon.png",
                    "isbinaryfile": true,
                    "blank": 0,
                    "code": 0,
                    "comment": 0
                },
                {
                    "blank": 5,
                    "code": 7,
                    "comment": 17,
                    "filename": "dist\\service-worker.js"
                },
                {
                    "blank": 0,
                    "code": 14949,
                    "comment": 0,
                    "filename": "package-lock.json"
                },
                {
                    "blank": 2,
                    "code": 77,
                    "comment": 0,
                    "filename": "package.json"
                },
                {
                    "filename": "public\\img\\icons\\sapicon.png",
                    "isbinaryfile": true,
                    "blank": 0,
                    "code": 0,
                    "comment": 0
                },
                {
                    "blank": 0,
                    "code": 16,
                    "comment": 1,
                    "filename": "public\\index.html"
                },
                {
                    "blank": 0,
                    "code": 20,
                    "comment": 0,
                    "filename": "public\\manifest.json"
                },
                {
                    "blank": 0,
                    "code": 2,
                    "comment": 0,
                    "filename": "public\\robots.txt"
                },
                {
                    "filename": "public\\sapicon.png",
                    "isbinaryfile": true,
                    "blank": 0,
                    "code": 0,
                    "comment": 0
                },
                {
                    "blank": 6,
                    "code": 23,
                    "comment": 1,
                    "filename": "README.md"
                },
                {
                    "blank": 5,
                    "code": 39,
                    "comment": 0,
                    "filename": "src\\App.vue"
                },
                {
                    "filename": "src\\assets\\airplane.png",
                    "isbinaryfile": true,
                    "blank": 0,
                    "code": 0,
                    "comment": 0
                },
                {
                    "filename": "src\\assets\\appgifs\\01-IAA-Start.gif",
                    "isbinaryfile": true,
                    "blank": 0,
                    "code": 0,
                    "comment": 0
                },
                {
                    "filename": "src\\assets\\appgifs\\02-IAA-Start2.gif",
                    "isbinaryfile": true,
                    "blank": 0,
                    "code": 0,
                    "comment": 0
                },
                {
                    "filename": "src\\assets\\appgifs\\03-BookYourRideV1-1.gif",
                    "isbinaryfile": true,
                    "blank": 0,
                    "code": 0,
                    "comment": 0
                },
                {
                    "filename": "src\\assets\\appgifs\\04-BookYourRideV1-2.gif",
                    "isbinaryfile": true,
                    "blank": 0,
                    "code": 0,
                    "comment": 0
                },
                {
                    "filename": "src\\assets\\appgifs\\05-BookYourRideV1-3.gif",
                    "isbinaryfile": true,
                    "blank": 0,
                    "code": 0,
                    "comment": 0
                },
                {
                    "filename": "src\\assets\\appgifs\\06-BookYourRideV1-4.gif",
                    "isbinaryfile": true,
                    "blank": 0,
                    "code": 0,
                    "comment": 0
                },
                {
                    "filename": "src\\assets\\appgifs\\06-BookYourRideV1-5.gif",
                    "isbinaryfile": true,
                    "blank": 0,
                    "code": 0,
                    "comment": 0
                },
                {
                    "filename": "src\\assets\\appgifs\\06-BookYourRideV1-6.gif",
                    "isbinaryfile": true,
                    "blank": 0,
                    "code": 0,
                    "comment": 0
                },
                {
                    "filename": "src\\assets\\appgifs\\07-Trip-V1-1.gif",
                    "isbinaryfile": true,
                    "blank": 0,
                    "code": 0,
                    "comment": 0
                },
                {
                    "filename": "src\\assets\\appgifs\\07-Trip-V1-2.gif",
                    "isbinaryfile": true,
                    "blank": 0,
                    "code": 0,
                    "comment": 0
                },
                {
                    "filename": "src\\assets\\appgifs\\07-Trip-V1-3.gif",
                    "isbinaryfile": true,
                    "blank": 0,
                    "code": 0,
                    "comment": 0
                },
                {
                    "filename": "src\\assets\\appgifs\\07-Trip-V1-4.gif",
                    "isbinaryfile": true,
                    "blank": 0,
                    "code": 0,
                    "comment": 0
                },
                {
                    "filename": "src\\assets\\appgifs\\07-Trip-V1-5.gif",
                    "isbinaryfile": true,
                    "blank": 0,
                    "code": 0,
                    "comment": 0
                },
                {
                    "filename": "src\\assets\\appgifs\\07-Trip-V1-6.gif",
                    "isbinaryfile": true,
                    "blank": 0,
                    "code": 0,
                    "comment": 0
                },
                {
                    "filename": "src\\assets\\appgifs\\07-Trip-V1-7.gif",
                    "isbinaryfile": true,
                    "blank": 0,
                    "code": 0,
                    "comment": 0
                },
                {
                    "filename": "src\\assets\\appgifs\\09-IAA-Shopping-card-V1-1.gif",
                    "isbinaryfile": true,
                    "blank": 0,
                    "code": 0,
                    "comment": 0
                },
                {
                    "filename": "src\\assets\\appgifs\\09-IAA-Shopping-card-V1-2.gif",
                    "isbinaryfile": true,
                    "blank": 0,
                    "code": 0,
                    "comment": 0
                },
                {
                    "filename": "src\\assets\\appgifs\\10-IAA-Payment-V1-1.gif",
                    "isbinaryfile": true,
                    "blank": 0,
                    "code": 0,
                    "comment": 0
                },
                {
                    "filename": "src\\assets\\appgifs\\10-IAA-Payment-V1-2.gif",
                    "isbinaryfile": true,
                    "blank": 0,
                    "code": 0,
                    "comment": 0
                },
                {
                    "filename": "src\\assets\\appgifs\\11-IAA-Rating-V1.gif",
                    "isbinaryfile": true,
                    "blank": 0,
                    "code": 0,
                    "comment": 0
                },
                {
                    "filename": "src\\assets\\appgifs\\12-BookYourRideV2-1.gif",
                    "isbinaryfile": true,
                    "blank": 0,
                    "code": 0,
                    "comment": 0
                },
                {
                    "filename": "src\\assets\\appgifs\\12-BookYourRideV2-2.gif",
                    "isbinaryfile": true,
                    "blank": 0,
                    "code": 0,
                    "comment": 0
                },
                {
                    "filename": "src\\assets\\appgifs\\12-BookYourRideV2-3.gif",
                    "isbinaryfile": true,
                    "blank": 0,
                    "code": 0,
                    "comment": 0
                },
                {
                    "filename": "src\\assets\\appgifs\\12-BookYourRideV2-4.gif",
                    "isbinaryfile": true,
                    "blank": 0,
                    "code": 0,
                    "comment": 0
                },
                {
                    "filename": "src\\assets\\appgifs\\12-BookYourRideV2-5.gif",
                    "isbinaryfile": true,
                    "blank": 0,
                    "code": 0,
                    "comment": 0
                },
                {
                    "filename": "src\\assets\\appgifs\\13-Trip-V2-1.gif",
                    "isbinaryfile": true,
                    "blank": 0,
                    "code": 0,
                    "comment": 0
                },
                {
                    "filename": "src\\assets\\appgifs\\14-IAA-Shopping-card-V1-1.gif",
                    "isbinaryfile": true,
                    "blank": 0,
                    "code": 0,
                    "comment": 0
                },
                {
                    "filename": "src\\assets\\appgifs\\14-IAA-Shopping-card-V1-2.gif",
                    "isbinaryfile": true,
                    "blank": 0,
                    "code": 0,
                    "comment": 0
                },
                {
                    "filename": "src\\assets\\appgifs\\15-IAA-Payment-V2-1.gif",
                    "isbinaryfile": true,
                    "blank": 0,
                    "code": 0,
                    "comment": 0
                },
                {
                    "filename": "src\\assets\\appgifs\\15-IAA-Payment-V2-2.gif",
                    "isbinaryfile": true,
                    "blank": 0,
                    "code": 0,
                    "comment": 0
                },
                {
                    "filename": "src\\assets\\appgifs\\16-IAA-Rating-V2.gif",
                    "isbinaryfile": true,
                    "blank": 0,
                    "code": 0,
                    "comment": 0
                },
                {
                    "filename": "src\\assets\\background.png",
                    "isbinaryfile": true,
                    "blank": 0,
                    "code": 0,
                    "comment": 0
                },
                {
                    "filename": "src\\assets\\Bahnhof FFM Video.mp4",
                    "isbinaryfile": true,
                    "blank": 0,
                    "code": 0,
                    "comment": 0
                },
                {
                    "filename": "src\\assets\\bahnhofcut.mp4",
                    "isbinaryfile": true,
                    "blank": 0,
                    "code": 0,
                    "comment": 0
                },
                {
                    "filename": "src\\assets\\bookingatairport.jpg",
                    "isbinaryfile": true,
                    "blank": 0,
                    "code": 0,
                    "comment": 0
                },
                {
                    "filename": "src\\assets\\cross.png",
                    "isbinaryfile": true,
                    "blank": 0,
                    "code": 0,
                    "comment": 0
                },
                {
                    "blank": 0,
                    "code": 6,
                    "comment": 0,
                    "filename": "src\\assets\\cross.svg"
                },
                {
                    "blank": 0,
                    "code": 39165,
                    "comment": 0,
                    "filename": "src\\assets\\data\\data.json"
                },
                {
                    "filename": "src\\assets\\depthcut.jpg",
                    "isbinaryfile": true,
                    "blank": 0,
                    "code": 0,
                    "comment": 0
                },
                {
                    "filename": "src\\assets\\depthcutbig.jpg",
                    "isbinaryfile": true,
                    "blank": 0,
                    "code": 0,
                    "comment": 0
                },
                {
                    "blank": 0,
                    "code": 17,
                    "comment": 0,
                    "filename": "src\\assets\\Dot.svg"
                },
                {
                    "blank": 0,
                    "code": 17,
                    "comment": 0,
                    "filename": "src\\assets\\DotTrans.svg"
                },
                {
                    "filename": "src\\assets\\droneshot.mp4",
                    "isbinaryfile": true,
                    "blank": 0,
                    "code": 0,
                    "comment": 0
                },
                {
                    "filename": "src\\assets\\droneshotstable.mp4",
                    "isbinaryfile": true,
                    "blank": 0,
                    "code": 0,
                    "comment": 0
                },
                {
                    "filename": "src\\assets\\droneshotstable.mp4",
                    "isbinaryfile": true,
                    "blank": 0,
                    "code": 0,
                    "comment": 0
                },
                {
                    "filename": "src\\assets\\environment.mp4",
                    "isbinaryfile": true,
                    "blank": 0,
                    "code": 0,
                    "comment": 0
                },
                {
                    "filename": "src\\assets\\Flughafen FFM Video.mp4",
                    "isbinaryfile": true,
                    "blank": 0,
                    "code": 0,
                    "comment": 0
                },
                {
                    "filename": "src\\assets\\flughafencut.mp4",
                    "isbinaryfile": true,
                    "blank": 0,
                    "code": 0,
                    "comment": 0
                },
                {
                    "filename": "src\\assets\\frankfurttop.jpg",
                    "isbinaryfile": true,
                    "blank": 0,
                    "code": 0,
                    "comment": 0
                },
                {
                    "filename": "src\\assets\\inairport.jpg",
                    "isbinaryfile": true,
                    "blank": 0,
                    "code": 0,
                    "comment": 0
                },
                {
                    "filename": "src\\assets\\insidesnap.png",
                    "isbinaryfile": true,
                    "blank": 0,
                    "code": 0,
                    "comment": 0
                },
                {
                    "blank": 0,
                    "code": 1,
                    "comment": 0,
                    "filename": "src\\assets\\InsideSnap.svg"
                },
                {
                    "filename": "src\\assets\\insidesnap2.png",
                    "isbinaryfile": true,
                    "blank": 0,
                    "code": 0,
                    "comment": 0
                },
                {
                    "filename": "src\\assets\\insidesubway.jpg",
                    "isbinaryfile": true,
                    "blank": 0,
                    "code": 0,
                    "comment": 0
                },
                {
                    "filename": "src\\assets\\leaningoutside.jpg",
                    "isbinaryfile": true,
                    "blank": 0,
                    "code": 0,
                    "comment": 0
                },
                {
                    "filename": "src\\assets\\logo.png",
                    "isbinaryfile": true,
                    "blank": 0,
                    "code": 0,
                    "comment": 0
                },
                {
                    "filename": "src\\assets\\london_nighttraffic.mp4",
                    "isbinaryfile": true,
                    "blank": 0,
                    "code": 0,
                    "comment": 0
                },
                {
                    "filename": "src\\assets\\manonescalator-min.png",
                    "isbinaryfile": true,
                    "blank": 0,
                    "code": 0,
                    "comment": 0
                },
                {
                    "filename": "src\\assets\\manonescalator.png",
                    "isbinaryfile": true,
                    "blank": 0,
                    "code": 0,
                    "comment": 0
                },
                {
                    "filename": "src\\assets\\MHP19_white.png",
                    "isbinaryfile": true,
                    "blank": 0,
                    "code": 0,
                    "comment": 0
                },
                {
                    "blank": 0,
                    "code": 39,
                    "comment": 0,
                    "filename": "src\\assets\\mhplogo.svg"
                },
                {
                    "filename": "src\\assets\\mobileapp.zip",
                    "isbinaryfile": true,
                    "blank": 0,
                    "code": 0,
                    "comment": 0
                },
                {
                    "filename": "src\\assets\\mobileapp\\Lock Screen 2.png",
                    "isbinaryfile": true,
                    "blank": 0,
                    "code": 0,
                    "comment": 0
                },
                {
                    "filename": "src\\assets\\mobileapp\\Lock Screen.png",
                    "isbinaryfile": true,
                    "blank": 0,
                    "code": 0,
                    "comment": 0
                },
                {
                    "filename": "src\\assets\\mobileapp\\paymentb.png",
                    "isbinaryfile": true,
                    "blank": 0,
                    "code": 0,
                    "comment": 0
                },
                {
                    "filename": "src\\assets\\mobileapp\\paymentc.png",
                    "isbinaryfile": true,
                    "blank": 0,
                    "code": 0,
                    "comment": 0
                },
                {
                    "filename": "src\\assets\\mobileapp\\paymentd.png",
                    "isbinaryfile": true,
                    "blank": 0,
                    "code": 0,
                    "comment": 0
                },
                {
                    "filename": "src\\assets\\mobileapp\\paymente.png",
                    "isbinaryfile": true,
                    "blank": 0,
                    "code": 0,
                    "comment": 0
                },
                {
                    "filename": "src\\assets\\mobileapp\\paymentg.png",
                    "isbinaryfile": true,
                    "blank": 0,
                    "code": 0,
                    "comment": 0
                },
                {
                    "filename": "src\\assets\\mobileapp\\RecommendationB.png",
                    "isbinaryfile": true,
                    "blank": 0,
                    "code": 0,
                    "comment": 0
                },
                {
                    "filename": "src\\assets\\mobileapp\\RecommendationFood.png",
                    "isbinaryfile": true,
                    "blank": 0,
                    "code": 0,
                    "comment": 0
                },
                {
                    "filename": "src\\assets\\mobileapp\\RecommendationTaycanwithDateandTime.png",
                    "isbinaryfile": true,
                    "blank": 0,
                    "code": 0,
                    "comment": 0
                },
                {
                    "filename": "src\\assets\\mobileapp\\setyourride.png",
                    "isbinaryfile": true,
                    "blank": 0,
                    "code": 0,
                    "comment": 0
                },
                {
                    "filename": "src\\assets\\mobileapp\\setyourride2.png",
                    "isbinaryfile": true,
                    "blank": 0,
                    "code": 0,
                    "comment": 0
                },
                {
                    "filename": "src\\assets\\mobileapp\\setyourride3.png",
                    "isbinaryfile": true,
                    "blank": 0,
                    "code": 0,
                    "comment": 0
                },
                {
                    "filename": "src\\assets\\mobileapp\\setyourride4.png",
                    "isbinaryfile": true,
                    "blank": 0,
                    "code": 0,
                    "comment": 0
                },
                {
                    "filename": "src\\assets\\mobileapp\\Shopping cart.png",
                    "isbinaryfile": true,
                    "blank": 0,
                    "code": 0,
                    "comment": 0
                },
                {
                    "filename": "src\\assets\\mobileapp\\Success.png",
                    "isbinaryfile": true,
                    "blank": 0,
                    "code": 0,
                    "comment": 0
                },
                {
                    "filename": "src\\assets\\mobileapp\\Wallet 2.png",
                    "isbinaryfile": true,
                    "blank": 0,
                    "code": 0,
                    "comment": 0
                },
                {
                    "filename": "src\\assets\\mobileapp\\Wallet.png",
                    "isbinaryfile": true,
                    "blank": 0,
                    "code": 0,
                    "comment": 0
                },
                {
                    "filename": "src\\assets\\olatestvideo.mp4",
                    "isbinaryfile": true,
                    "blank": 0,
                    "code": 0,
                    "comment": 0
                },
                {
                    "filename": "src\\assets\\sap.png",
                    "isbinaryfile": true,
                    "blank": 0,
                    "code": 0,
                    "comment": 0
                },
                {
                    "blank": 0,
                    "code": 1,
                    "comment": 0,
                    "filename": "src\\assets\\saplogo.svg"
                },
                {
                    "filename": "src\\assets\\settingstage.mp4",
                    "isbinaryfile": true,
                    "blank": 0,
                    "code": 0,
                    "comment": 0
                },
                {
                    "filename": "src\\assets\\settingstageslow.mp4",
                    "isbinaryfile": true,
                    "blank": 0,
                    "code": 0,
                    "comment": 0
                },
                {
                    "filename": "src\\assets\\setyourride2.png",
                    "isbinaryfile": true,
                    "blank": 0,
                    "code": 0,
                    "comment": 0
                },
                {
                    "filename": "src\\assets\\sittinginsbahn.jpg",
                    "isbinaryfile": true,
                    "blank": 0,
                    "code": 0,
                    "comment": 0
                },
                {
                    "filename": "src\\assets\\snap_028.png",
                    "isbinaryfile": true,
                    "blank": 0,
                    "code": 0,
                    "comment": 0
                },
                {
                    "filename": "src\\assets\\snaparrivingscene.mp4",
                    "isbinaryfile": true,
                    "blank": 0,
                    "code": 0,
                    "comment": 0
                },
                {
                    "filename": "src\\assets\\standing.jpg",
                    "isbinaryfile": true,
                    "blank": 0,
                    "code": 0,
                    "comment": 0
                },
                {
                    "filename": "src\\assets\\StartScreen.png",
                    "isbinaryfile": true,
                    "blank": 0,
                    "code": 0,
                    "comment": 0
                },
                {
                    "filename": "src\\assets\\subway.png",
                    "isbinaryfile": true,
                    "blank": 0,
                    "code": 0,
                    "comment": 0
                },
                {
                    "filename": "src\\assets\\test.gif",
                    "isbinaryfile": true,
                    "blank": 0,
                    "code": 0,
                    "comment": 0
                },
                {
                    "filename": "src\\assets\\test2.gif",
                    "isbinaryfile": true,
                    "blank": 0,
                    "code": 0,
                    "comment": 0
                },
                {
                    "filename": "src\\assets\\test2stop.gif",
                    "isbinaryfile": true,
                    "blank": 0,
                    "code": 0,
                    "comment": 0
                },
                {
                    "filename": "src\\assets\\walkingintrain.png",
                    "isbinaryfile": true,
                    "blank": 0,
                    "code": 0,
                    "comment": 0
                },
                {
                    "filename": "src\\assets\\walkingouttrain.jpg",
                    "isbinaryfile": true,
                    "blank": 0,
                    "code": 0,
                    "comment": 0
                },
                {
                    "blank": 7,
                    "code": 82,
                    "comment": 1,
                    "filename": "src\\components\\BackgroundPicture.vue"
                },
                {
                    "blank": 13,
                    "code": 115,
                    "comment": 0,
                    "filename": "src\\components\\BackgroundVideo.vue"
                },
                {
                    "blank": 14,
                    "code": 136,
                    "comment": 4,
                    "filename": "src\\components\\IframeComponent.vue"
                },
                {
                    "blank": 15,
                    "code": 300,
                    "comment": 57,
                    "filename": "src\\components\\OverlayMenu.vue"
                },
                {
                    "blank": 15,
                    "code": 300,
                    "comment": 57,
                    "filename": "src\\components\\OverlayMenuDark.vue"
                },
                {
                    "blank": 24,
                    "code": 125,
                    "comment": 9,
                    "filename": "src\\components\\SmcCustomerDataCloud.vue"
                },
                {
                    "blank": 24,
                    "code": 125,
                    "comment": 9,
                    "filename": "src\\components\\SmcFleetManagement.vue"
                },
                {
                    "blank": 24,
                    "code": 125,
                    "comment": 9,
                    "filename": "src\\components\\SmcMarketingCloud.vue"
                },
                {
                    "blank": 24,
                    "code": 125,
                    "comment": 9,
                    "filename": "src\\components\\SmcSubscription.vue"
                },
                {
                    "blank": 19,
                    "code": 157,
                    "comment": 23,
                    "filename": "src\\components\\SolutionMapSquare.vue"
                },
                {
                    "blank": 23,
                    "code": 154,
                    "comment": 9,
                    "filename": "src\\components\\SolutionModal.vue"
                },
                {
                    "blank": 16,
                    "code": 157,
                    "comment": 1,
                    "filename": "src\\components\\SolutionPoint.vue"
                },
                {
                    "blank": 32,
                    "code": 207,
                    "comment": 1,
                    "filename": "src\\components\\SolutionPointOrange.vue"
                },
                {
                    "blank": 25,
                    "code": 155,
                    "comment": 0,
                    "filename": "src\\components\\StoryDialer.vue"
                },
                {
                    "blank": 49,
                    "code": 286,
                    "comment": 38,
                    "filename": "src\\components\\StorySlider.vue"
                },
                {
                    "blank": 55,
                    "code": 478,
                    "comment": 3,
                    "filename": "src\\components\\VideoBackground.vue"
                },
                {
                    "blank": 55,
                    "code": 478,
                    "comment": 3,
                    "filename": "src\\components\\VideoBackgroundPod2.vue"
                },
                {
                    "blank": 2,
                    "code": 11,
                    "comment": 0,
                    "filename": "src\\main.js"
                },
                {
                    "blank": 2,
                    "code": 31,
                    "comment": 1,
                    "filename": "src\\registerServiceWorker.js"
                },
                {
                    "blank": 2,
                    "code": 89,
                    "comment": 4,
                    "filename": "src\\router.js"
                },
                {
                    "blank": 62,
                    "code": 209,
                    "comment": 13,
                    "filename": "src\\scripts\\fake3d.js"
                },
                {
                    "blank": 2,
                    "code": 2,
                    "comment": 3,
                    "filename": "src\\scripts\\lib\\gyronorm.js"
                },
                {
                    "blank": 4,
                    "code": 22,
                    "comment": 1,
                    "filename": "src\\scripts\\shaders\\fragment.glsl"
                },
                {
                    "blank": 1,
                    "code": 4,
                    "comment": 0,
                    "filename": "src\\scripts\\shaders\\vertex.glsl"
                },
                {
                    "blank": 14,
                    "code": 941,
                    "comment": 1,
                    "filename": "src\\scripts\\test.js"
                },
                {
                    "blank": 3,
                    "code": 27,
                    "comment": 0,
                    "filename": "src\\store.js"
                },
                {
                    "blank": 1,
                    "code": 3,
                    "comment": 0,
                    "filename": "src\\styles\\scss\\app.scss"
                },
                {
                    "blank": 0,
                    "code": 5,
                    "comment": 0,
                    "filename": "src\\views\\About.vue"
                },
                {
                    "blank": 13,
                    "code": 352,
                    "comment": 4,
                    "filename": "src\\views\\AiportStoryOne.vue"
                },
                {
                    "blank": 5,
                    "code": 22,
                    "comment": 1,
                    "filename": "src\\views\\Home.vue"
                },
                {
                    "blank": 3,
                    "code": 19,
                    "comment": 1,
                    "filename": "src\\views\\HomePod2.vue"
                },
                {
                    "blank": 3,
                    "code": 19,
                    "comment": 1,
                    "filename": "src\\views\\HomePod2Bahn.vue"
                },
                {
                    "blank": 13,
                    "code": 295,
                    "comment": 4,
                    "filename": "src\\views\\PayRideThree.vue"
                },
                {
                    "blank": 13,
                    "code": 286,
                    "comment": 4,
                    "filename": "src\\views\\SbahnStoryTwo.vue"
                },
                {
                    "blank": 11,
                    "code": 226,
                    "comment": 3,
                    "filename": "src\\views\\SnapStoryTwo.vue"
                },
                {
                    "blank": 4,
                    "code": 68,
                    "comment": 6,
                    "filename": "src\\views\\SolutionMap.vue"
                },
                {
                    "blank": 3,
                    "code": 22,
                    "comment": 6,
                    "filename": "src\\views\\SolutionMapTest.vue"
                },
                {
                    "blank": 2,
                    "code": 17,
                    "comment": 1,
                    "filename": "src\\views\\StoryDialerView.vue"
                },
                {
                    "blank": 5,
                    "code": 37,
                    "comment": 2,
                    "filename": "src\\views\\Survey.vue"
                },
                {
                    "blank": 14,
                    "code": 307,
                    "comment": 4,
                    "filename": "src\\views\\TrainStationStoryOne.vue"
                },
                {
                    "blank": 4,
                    "code": 44,
                    "comment": 2,
                    "filename": "src\\views\\TransitionAirport.vue"
                },
                {
                    "blank": 4,
                    "code": 44,
                    "comment": 2,
                    "filename": "src\\views\\TransitionCentralStation.vue"
                },
                {
                    "blank": 3,
                    "code": 19,
                    "comment": 1,
                    "filename": "src\\views\\TransitionSettingStage.vue"
                },
                {
                    "blank": 1,
                    "code": 9,
                    "comment": 0,
                    "filename": "vue.config.js"
                },
                {
                    "blank": 12,
                    "code": 98,
                    "comment": 0,
                    "filename": "webpack.config.js"
                }
            ]
        },
        {
            "version": "0.1.7",
            "counttime": "2019-08-30 15:26:46",
            "filesum": 199,
            "codesum": 63410,
            "commentsum": 564,
            "blanksum": 1131,
            "filelist": [
                {
                    "blank": 3,
                    "code": 12,
                    "comment": 0,
                    "filename": "'~\\.npm-global'\\modernizr"
                },
                {
                    "blank": 0,
                    "code": 7,
                    "comment": 0,
                    "filename": "'~\\.npm-global'\\modernizr.cmd"
                },
                {
                    "blank": 3,
                    "code": 12,
                    "comment": 0,
                    "filename": "'~\\.npm-global'\\serve"
                },
                {
                    "blank": 0,
                    "code": 7,
                    "comment": 0,
                    "filename": "'~\\.npm-global'\\serve.cmd"
                },
                {
                    "blank": 0,
                    "code": 7,
                    "comment": 0,
                    "filename": ".editorconfig"
                },
                {
                    "blank": 3,
                    "code": 18,
                    "comment": 0,
                    "filename": ".gitignore"
                },
                {
                    "blank": 0,
                    "code": 5,
                    "comment": 0,
                    "filename": "babel.config.js"
                },
                {
                    "blank": 0,
                    "code": 1,
                    "comment": 0,
                    "filename": "dist\\css\\app.c6c2838b.css"
                },
                {
                    "blank": 0,
                    "code": 1,
                    "comment": 0,
                    "filename": "dist\\css\\chunk-vendors.9a45d257.css"
                },
                {
                    "filename": "dist\\img\\airplane.9361be26.png",
                    "isbinaryfile": true,
                    "blank": 0,
                    "code": 0,
                    "comment": 0
                },
                {
                    "filename": "dist\\img\\icons\\sapicon.png",
                    "isbinaryfile": true,
                    "blank": 0,
                    "code": 0,
                    "comment": 0
                },
                {
                    "filename": "dist\\img\\manonescalator.65a8c72c.png",
                    "isbinaryfile": true,
                    "blank": 0,
                    "code": 0,
                    "comment": 0
                },
                {
                    "blank": 0,
                    "code": 39,
                    "comment": 0,
                    "filename": "dist\\img\\mhplogo.cb2198ec.svg"
                },
                {
                    "filename": "dist\\img\\sap.9632492e.png",
                    "isbinaryfile": true,
                    "blank": 0,
                    "code": 0,
                    "comment": 0
                },
                {
                    "blank": 0,
                    "code": 1,
                    "comment": 0,
                    "filename": "dist\\img\\saplogo.b0844d5f.svg"
                },
                {
                    "filename": "dist\\img\\subway.48fe93b9.png",
                    "isbinaryfile": true,
                    "blank": 0,
                    "code": 0,
                    "comment": 0
                },
                {
                    "filename": "dist\\img\\test2stop.51b32795.gif",
                    "isbinaryfile": true,
                    "blank": 0,
                    "code": 0,
                    "comment": 0
                },
                {
                    "filename": "dist\\img\\walkingintrain.20be45ac.png",
                    "isbinaryfile": true,
                    "blank": 0,
                    "code": 0,
                    "comment": 0
                },
                {
                    "blank": 0,
                    "code": 1,
                    "comment": 0,
                    "filename": "dist\\index.html"
                },
                {
                    "blank": 0,
                    "code": 1,
                    "comment": 1,
                    "filename": "dist\\js\\about.a9645ca0.js"
                },
                {
                    "blank": 0,
                    "code": 1,
                    "comment": 0,
                    "filename": "dist\\js\\about.a9645ca0.js.map"
                },
                {
                    "blank": 0,
                    "code": 1,
                    "comment": 1,
                    "filename": "dist\\js\\app.69532178.js"
                },
                {
                    "blank": 0,
                    "code": 1,
                    "comment": 0,
                    "filename": "dist\\js\\app.69532178.js.map"
                },
                {
                    "blank": 0,
                    "code": 6,
                    "comment": 25,
                    "filename": "dist\\js\\chunk-vendors.72b890ea.js"
                },
                {
                    "blank": 0,
                    "code": 1,
                    "comment": 0,
                    "filename": "dist\\js\\chunk-vendors.72b890ea.js.map"
                },
                {
                    "blank": 0,
                    "code": 20,
                    "comment": 0,
                    "filename": "dist\\manifest.json"
                },
                {
                    "filename": "dist\\media\\droneshot.138a4c5a.mp4",
                    "isbinaryfile": true,
                    "blank": 0,
                    "code": 0,
                    "comment": 0
                },
                {
                    "filename": "dist\\media\\droneshotstable.4a294724.mp4",
                    "isbinaryfile": true,
                    "blank": 0,
                    "code": 0,
                    "comment": 0
                },
                {
                    "filename": "dist\\media\\london_nighttraffic.47b8eaf2.mp4",
                    "isbinaryfile": true,
                    "blank": 0,
                    "code": 0,
                    "comment": 0
                },
                {
                    "blank": 0,
                    "code": 78,
                    "comment": 0,
                    "filename": "dist\\precache-manifest.dd56744b3903ee682d0a547beb3dd82d.js"
                },
                {
                    "blank": 0,
                    "code": 2,
                    "comment": 0,
                    "filename": "dist\\robots.txt"
                },
                {
                    "filename": "dist\\sapicon.png",
                    "isbinaryfile": true,
                    "blank": 0,
                    "code": 0,
                    "comment": 0
                },
                {
                    "blank": 5,
                    "code": 7,
                    "comment": 17,
                    "filename": "dist\\service-worker.js"
                },
                {
                    "blank": 0,
                    "code": 14958,
                    "comment": 0,
                    "filename": "package-lock.json"
                },
                {
                    "blank": 2,
                    "code": 78,
                    "comment": 0,
                    "filename": "package.json"
                },
                {
                    "filename": "public\\img\\icons\\sapicon.png",
                    "isbinaryfile": true,
                    "blank": 0,
                    "code": 0,
                    "comment": 0
                },
                {
                    "blank": 0,
                    "code": 16,
                    "comment": 1,
                    "filename": "public\\index.html"
                },
                {
                    "blank": 0,
                    "code": 20,
                    "comment": 0,
                    "filename": "public\\manifest.json"
                },
                {
                    "blank": 0,
                    "code": 2,
                    "comment": 0,
                    "filename": "public\\robots.txt"
                },
                {
                    "filename": "public\\sapicon.png",
                    "isbinaryfile": true,
                    "blank": 0,
                    "code": 0,
                    "comment": 0
                },
                {
                    "blank": 6,
                    "code": 23,
                    "comment": 1,
                    "filename": "README.md"
                },
                {
                    "blank": 5,
                    "code": 42,
                    "comment": 0,
                    "filename": "src\\App.vue"
                },
                {
                    "filename": "src\\assets\\airplane.png",
                    "isbinaryfile": true,
                    "blank": 0,
                    "code": 0,
                    "comment": 0
                },
                {
                    "filename": "src\\assets\\appgifs\\01-IAA-Start.gif",
                    "isbinaryfile": true,
                    "blank": 0,
                    "code": 0,
                    "comment": 0
                },
                {
                    "filename": "src\\assets\\appgifs\\02-IAA-Start2.gif",
                    "isbinaryfile": true,
                    "blank": 0,
                    "code": 0,
                    "comment": 0
                },
                {
                    "filename": "src\\assets\\appgifs\\03-BookYourRideV1-1.gif",
                    "isbinaryfile": true,
                    "blank": 0,
                    "code": 0,
                    "comment": 0
                },
                {
                    "filename": "src\\assets\\appgifs\\04-BookYourRideV1-2.gif",
                    "isbinaryfile": true,
                    "blank": 0,
                    "code": 0,
                    "comment": 0
                },
                {
                    "filename": "src\\assets\\appgifs\\05-BookYourRideV1-3.gif",
                    "isbinaryfile": true,
                    "blank": 0,
                    "code": 0,
                    "comment": 0
                },
                {
                    "filename": "src\\assets\\appgifs\\06-BookYourRideV1-4.gif",
                    "isbinaryfile": true,
                    "blank": 0,
                    "code": 0,
                    "comment": 0
                },
                {
                    "filename": "src\\assets\\appgifs\\06-BookYourRideV1-5.gif",
                    "isbinaryfile": true,
                    "blank": 0,
                    "code": 0,
                    "comment": 0
                },
                {
                    "filename": "src\\assets\\appgifs\\06-BookYourRideV1-6.gif",
                    "isbinaryfile": true,
                    "blank": 0,
                    "code": 0,
                    "comment": 0
                },
                {
                    "filename": "src\\assets\\appgifs\\07-Trip-V1-1.gif",
                    "isbinaryfile": true,
                    "blank": 0,
                    "code": 0,
                    "comment": 0
                },
                {
                    "filename": "src\\assets\\appgifs\\07-Trip-V1-2.gif",
                    "isbinaryfile": true,
                    "blank": 0,
                    "code": 0,
                    "comment": 0
                },
                {
                    "filename": "src\\assets\\appgifs\\07-Trip-V1-3.gif",
                    "isbinaryfile": true,
                    "blank": 0,
                    "code": 0,
                    "comment": 0
                },
                {
                    "filename": "src\\assets\\appgifs\\07-Trip-V1-4.gif",
                    "isbinaryfile": true,
                    "blank": 0,
                    "code": 0,
                    "comment": 0
                },
                {
                    "filename": "src\\assets\\appgifs\\07-Trip-V1-5.gif",
                    "isbinaryfile": true,
                    "blank": 0,
                    "code": 0,
                    "comment": 0
                },
                {
                    "filename": "src\\assets\\appgifs\\07-Trip-V1-6.gif",
                    "isbinaryfile": true,
                    "blank": 0,
                    "code": 0,
                    "comment": 0
                },
                {
                    "filename": "src\\assets\\appgifs\\07-Trip-V1-7.gif",
                    "isbinaryfile": true,
                    "blank": 0,
                    "code": 0,
                    "comment": 0
                },
                {
                    "filename": "src\\assets\\appgifs\\09-IAA-Shopping-card-V1-1.gif",
                    "isbinaryfile": true,
                    "blank": 0,
                    "code": 0,
                    "comment": 0
                },
                {
                    "filename": "src\\assets\\appgifs\\09-IAA-Shopping-card-V1-2.gif",
                    "isbinaryfile": true,
                    "blank": 0,
                    "code": 0,
                    "comment": 0
                },
                {
                    "filename": "src\\assets\\appgifs\\10-IAA-Payment-V1-1.gif",
                    "isbinaryfile": true,
                    "blank": 0,
                    "code": 0,
                    "comment": 0
                },
                {
                    "filename": "src\\assets\\appgifs\\10-IAA-Payment-V1-2.gif",
                    "isbinaryfile": true,
                    "blank": 0,
                    "code": 0,
                    "comment": 0
                },
                {
                    "filename": "src\\assets\\appgifs\\11-IAA-Rating-V1.gif",
                    "isbinaryfile": true,
                    "blank": 0,
                    "code": 0,
                    "comment": 0
                },
                {
                    "filename": "src\\assets\\appgifs\\12-BookYourRideV2-1.gif",
                    "isbinaryfile": true,
                    "blank": 0,
                    "code": 0,
                    "comment": 0
                },
                {
                    "filename": "src\\assets\\appgifs\\12-BookYourRideV2-2.gif",
                    "isbinaryfile": true,
                    "blank": 0,
                    "code": 0,
                    "comment": 0
                },
                {
                    "filename": "src\\assets\\appgifs\\12-BookYourRideV2-3.gif",
                    "isbinaryfile": true,
                    "blank": 0,
                    "code": 0,
                    "comment": 0
                },
                {
                    "filename": "src\\assets\\appgifs\\12-BookYourRideV2-4.gif",
                    "isbinaryfile": true,
                    "blank": 0,
                    "code": 0,
                    "comment": 0
                },
                {
                    "filename": "src\\assets\\appgifs\\12-BookYourRideV2-5.gif",
                    "isbinaryfile": true,
                    "blank": 0,
                    "code": 0,
                    "comment": 0
                },
                {
                    "filename": "src\\assets\\appgifs\\13-Trip-V2-1.gif",
                    "isbinaryfile": true,
                    "blank": 0,
                    "code": 0,
                    "comment": 0
                },
                {
                    "filename": "src\\assets\\appgifs\\14-IAA-Shopping-card-V1-1.gif",
                    "isbinaryfile": true,
                    "blank": 0,
                    "code": 0,
                    "comment": 0
                },
                {
                    "filename": "src\\assets\\appgifs\\14-IAA-Shopping-card-V1-2.gif",
                    "isbinaryfile": true,
                    "blank": 0,
                    "code": 0,
                    "comment": 0
                },
                {
                    "filename": "src\\assets\\appgifs\\15-IAA-Payment-V2-1.gif",
                    "isbinaryfile": true,
                    "blank": 0,
                    "code": 0,
                    "comment": 0
                },
                {
                    "filename": "src\\assets\\appgifs\\15-IAA-Payment-V2-2.gif",
                    "isbinaryfile": true,
                    "blank": 0,
                    "code": 0,
                    "comment": 0
                },
                {
                    "filename": "src\\assets\\appgifs\\16-IAA-Rating-V2.gif",
                    "isbinaryfile": true,
                    "blank": 0,
                    "code": 0,
                    "comment": 0
                },
                {
                    "filename": "src\\assets\\background.png",
                    "isbinaryfile": true,
                    "blank": 0,
                    "code": 0,
                    "comment": 0
                },
                {
                    "filename": "src\\assets\\Bahnhof FFM Video.mp4",
                    "isbinaryfile": true,
                    "blank": 0,
                    "code": 0,
                    "comment": 0
                },
                {
                    "filename": "src\\assets\\bahnhofcut.mp4",
                    "isbinaryfile": true,
                    "blank": 0,
                    "code": 0,
                    "comment": 0
                },
                {
                    "filename": "src\\assets\\bookingatairport.jpg",
                    "isbinaryfile": true,
                    "blank": 0,
                    "code": 0,
                    "comment": 0
                },
                {
                    "filename": "src\\assets\\charging.mp4",
                    "isbinaryfile": true,
                    "blank": 0,
                    "code": 0,
                    "comment": 0
                },
                {
                    "filename": "src\\assets\\cross.png",
                    "isbinaryfile": true,
                    "blank": 0,
                    "code": 0,
                    "comment": 0
                },
                {
                    "blank": 0,
                    "code": 6,
                    "comment": 0,
                    "filename": "src\\assets\\cross.svg"
                },
                {
                    "filename": "src\\assets\\daimler.png",
                    "isbinaryfile": true,
                    "blank": 0,
                    "code": 0,
                    "comment": 0
                },
                {
                    "blank": 0,
                    "code": 39165,
                    "comment": 0,
                    "filename": "src\\assets\\data\\data.json"
                },
                {
                    "filename": "src\\assets\\depthcut.jpg",
                    "isbinaryfile": true,
                    "blank": 0,
                    "code": 0,
                    "comment": 0
                },
                {
                    "filename": "src\\assets\\depthcutbig.jpg",
                    "isbinaryfile": true,
                    "blank": 0,
                    "code": 0,
                    "comment": 0
                },
                {
                    "blank": 0,
                    "code": 17,
                    "comment": 0,
                    "filename": "src\\assets\\Dot.svg"
                },
                {
                    "blank": 0,
                    "code": 17,
                    "comment": 0,
                    "filename": "src\\assets\\DotTrans.svg"
                },
                {
                    "filename": "src\\assets\\droneshot.mp4",
                    "isbinaryfile": true,
                    "blank": 0,
                    "code": 0,
                    "comment": 0
                },
                {
                    "filename": "src\\assets\\droneshotstable.mp4",
                    "isbinaryfile": true,
                    "blank": 0,
                    "code": 0,
                    "comment": 0
                },
                {
                    "filename": "src\\assets\\environment.mp4",
                    "isbinaryfile": true,
                    "blank": 0,
                    "code": 0,
                    "comment": 0
                },
                {
                    "filename": "src\\assets\\Flughafen FFM Video.mp4",
                    "isbinaryfile": true,
                    "blank": 0,
                    "code": 0,
                    "comment": 0
                },
                {
                    "filename": "src\\assets\\flughafencut.mp4",
                    "isbinaryfile": true,
                    "blank": 0,
                    "code": 0,
                    "comment": 0
                },
                {
                    "filename": "src\\assets\\frankfurttop.jpg",
                    "isbinaryfile": true,
                    "blank": 0,
                    "code": 0,
                    "comment": 0
                },
                {
                    "filename": "src\\assets\\iaanewmobilityworld.jpg",
                    "isbinaryfile": true,
                    "blank": 0,
                    "code": 0,
                    "comment": 0
                },
                {
                    "filename": "src\\assets\\inairport.jpg",
                    "isbinaryfile": true,
                    "blank": 0,
                    "code": 0,
                    "comment": 0
                },
                {
                    "filename": "src\\assets\\insidesnap.mp4",
                    "isbinaryfile": true,
                    "blank": 0,
                    "code": 0,
                    "comment": 0
                },
                {
                    "filename": "src\\assets\\insidesnap.png",
                    "isbinaryfile": true,
                    "blank": 0,
                    "code": 0,
                    "comment": 0
                },
                {
                    "blank": 0,
                    "code": 1,
                    "comment": 0,
                    "filename": "src\\assets\\InsideSnap.svg"
                },
                {
                    "filename": "src\\assets\\insidesnap2.png",
                    "isbinaryfile": true,
                    "blank": 0,
                    "code": 0,
                    "comment": 0
                },
                {
                    "filename": "src\\assets\\insidesubway.jpg",
                    "isbinaryfile": true,
                    "blank": 0,
                    "code": 0,
                    "comment": 0
                },
                {
                    "filename": "src\\assets\\leaningoutside.jpg",
                    "isbinaryfile": true,
                    "blank": 0,
                    "code": 0,
                    "comment": 0
                },
                {
                    "filename": "src\\assets\\logo.png",
                    "isbinaryfile": true,
                    "blank": 0,
                    "code": 0,
                    "comment": 0
                },
                {
                    "filename": "src\\assets\\london_nighttraffic.mp4",
                    "isbinaryfile": true,
                    "blank": 0,
                    "code": 0,
                    "comment": 0
                },
                {
                    "filename": "src\\assets\\manonescalator-min.png",
                    "isbinaryfile": true,
                    "blank": 0,
                    "code": 0,
                    "comment": 0
                },
                {
                    "filename": "src\\assets\\manonescalator.png",
                    "isbinaryfile": true,
                    "blank": 0,
                    "code": 0,
                    "comment": 0
                },
                {
                    "filename": "src\\assets\\MHP19_white.png",
                    "isbinaryfile": true,
                    "blank": 0,
                    "code": 0,
                    "comment": 0
                },
                {
                    "blank": 0,
                    "code": 39,
                    "comment": 0,
                    "filename": "src\\assets\\mhplogo.svg"
                },
                {
                    "filename": "src\\assets\\mobileapp.zip",
                    "isbinaryfile": true,
                    "blank": 0,
                    "code": 0,
                    "comment": 0
                },
                {
                    "filename": "src\\assets\\mobileapp\\Lock Screen 2.png",
                    "isbinaryfile": true,
                    "blank": 0,
                    "code": 0,
                    "comment": 0
                },
                {
                    "filename": "src\\assets\\mobileapp\\Lock Screen.png",
                    "isbinaryfile": true,
                    "blank": 0,
                    "code": 0,
                    "comment": 0
                },
                {
                    "filename": "src\\assets\\mobileapp\\paymentb.png",
                    "isbinaryfile": true,
                    "blank": 0,
                    "code": 0,
                    "comment": 0
                },
                {
                    "filename": "src\\assets\\mobileapp\\paymentc.png",
                    "isbinaryfile": true,
                    "blank": 0,
                    "code": 0,
                    "comment": 0
                },
                {
                    "filename": "src\\assets\\mobileapp\\paymentd.png",
                    "isbinaryfile": true,
                    "blank": 0,
                    "code": 0,
                    "comment": 0
                },
                {
                    "filename": "src\\assets\\mobileapp\\paymente.png",
                    "isbinaryfile": true,
                    "blank": 0,
                    "code": 0,
                    "comment": 0
                },
                {
                    "filename": "src\\assets\\mobileapp\\paymentg.png",
                    "isbinaryfile": true,
                    "blank": 0,
                    "code": 0,
                    "comment": 0
                },
                {
                    "filename": "src\\assets\\mobileapp\\RecommendationB.png",
                    "isbinaryfile": true,
                    "blank": 0,
                    "code": 0,
                    "comment": 0
                },
                {
                    "filename": "src\\assets\\mobileapp\\RecommendationFood.png",
                    "isbinaryfile": true,
                    "blank": 0,
                    "code": 0,
                    "comment": 0
                },
                {
                    "filename": "src\\assets\\mobileapp\\RecommendationTaycanwithDateandTime.png",
                    "isbinaryfile": true,
                    "blank": 0,
                    "code": 0,
                    "comment": 0
                },
                {
                    "filename": "src\\assets\\mobileapp\\setyourride.png",
                    "isbinaryfile": true,
                    "blank": 0,
                    "code": 0,
                    "comment": 0
                },
                {
                    "filename": "src\\assets\\mobileapp\\setyourride2.png",
                    "isbinaryfile": true,
                    "blank": 0,
                    "code": 0,
                    "comment": 0
                },
                {
                    "filename": "src\\assets\\mobileapp\\setyourride3.png",
                    "isbinaryfile": true,
                    "blank": 0,
                    "code": 0,
                    "comment": 0
                },
                {
                    "filename": "src\\assets\\mobileapp\\setyourride4.png",
                    "isbinaryfile": true,
                    "blank": 0,
                    "code": 0,
                    "comment": 0
                },
                {
                    "filename": "src\\assets\\mobileapp\\Shopping cart.png",
                    "isbinaryfile": true,
                    "blank": 0,
                    "code": 0,
                    "comment": 0
                },
                {
                    "filename": "src\\assets\\mobileapp\\Success.png",
                    "isbinaryfile": true,
                    "blank": 0,
                    "code": 0,
                    "comment": 0
                },
                {
                    "filename": "src\\assets\\mobileapp\\Wallet 2.png",
                    "isbinaryfile": true,
                    "blank": 0,
                    "code": 0,
                    "comment": 0
                },
                {
                    "filename": "src\\assets\\mobileapp\\Wallet.png",
                    "isbinaryfile": true,
                    "blank": 0,
                    "code": 0,
                    "comment": 0
                },
                {
                    "filename": "src\\assets\\olatestvideo.mp4",
                    "isbinaryfile": true,
                    "blank": 0,
                    "code": 0,
                    "comment": 0
                },
                {
                    "filename": "src\\assets\\p2c.mp4",
                    "isbinaryfile": true,
                    "blank": 0,
                    "code": 0,
                    "comment": 0
                },
                {
                    "filename": "src\\assets\\sap.png",
                    "isbinaryfile": true,
                    "blank": 0,
                    "code": 0,
                    "comment": 0
                },
                {
                    "blank": 0,
                    "code": 1,
                    "comment": 0,
                    "filename": "src\\assets\\saplogo.svg"
                },
                {
                    "filename": "src\\assets\\settingstage.mp4",
                    "isbinaryfile": true,
                    "blank": 0,
                    "code": 0,
                    "comment": 0
                },
                {
                    "filename": "src\\assets\\settingstageslow.mp4",
                    "isbinaryfile": true,
                    "blank": 0,
                    "code": 0,
                    "comment": 0
                },
                {
                    "filename": "src\\assets\\setyourride2.png",
                    "isbinaryfile": true,
                    "blank": 0,
                    "code": 0,
                    "comment": 0
                },
                {
                    "filename": "src\\assets\\sittinginsbahn.jpg",
                    "isbinaryfile": true,
                    "blank": 0,
                    "code": 0,
                    "comment": 0
                },
                {
                    "filename": "src\\assets\\Smart_Charging_Demo.mp4",
                    "isbinaryfile": true,
                    "blank": 0,
                    "code": 0,
                    "comment": 0
                },
                {
                    "filename": "src\\assets\\snap_028.png",
                    "isbinaryfile": true,
                    "blank": 0,
                    "code": 0,
                    "comment": 0
                },
                {
                    "filename": "src\\assets\\snaparrivingscene.mp4",
                    "isbinaryfile": true,
                    "blank": 0,
                    "code": 0,
                    "comment": 0
                },
                {
                    "filename": "src\\assets\\standing.jpg",
                    "isbinaryfile": true,
                    "blank": 0,
                    "code": 0,
                    "comment": 0
                },
                {
                    "filename": "src\\assets\\StartScreen.png",
                    "isbinaryfile": true,
                    "blank": 0,
                    "code": 0,
                    "comment": 0
                },
                {
                    "filename": "src\\assets\\subway.png",
                    "isbinaryfile": true,
                    "blank": 0,
                    "code": 0,
                    "comment": 0
                },
                {
                    "filename": "src\\assets\\test.gif",
                    "isbinaryfile": true,
                    "blank": 0,
                    "code": 0,
                    "comment": 0
                },
                {
                    "filename": "src\\assets\\test2.gif",
                    "isbinaryfile": true,
                    "blank": 0,
                    "code": 0,
                    "comment": 0
                },
                {
                    "filename": "src\\assets\\test2stop.gif",
                    "isbinaryfile": true,
                    "blank": 0,
                    "code": 0,
                    "comment": 0
                },
                {
                    "filename": "src\\assets\\walkingintrain.png",
                    "isbinaryfile": true,
                    "blank": 0,
                    "code": 0,
                    "comment": 0
                },
                {
                    "filename": "src\\assets\\walkingouttrain.jpg",
                    "isbinaryfile": true,
                    "blank": 0,
                    "code": 0,
                    "comment": 0
                },
                {
                    "blank": 7,
                    "code": 82,
                    "comment": 1,
                    "filename": "src\\components\\BackgroundPicture.vue"
                },
                {
                    "blank": 13,
                    "code": 115,
                    "comment": 0,
                    "filename": "src\\components\\BackgroundVideo.vue"
                },
                {
                    "blank": 14,
                    "code": 136,
                    "comment": 4,
                    "filename": "src\\components\\IframeComponent.vue"
                },
                {
                    "blank": 19,
                    "code": 158,
                    "comment": 4,
                    "filename": "src\\components\\IframeComponentNoBack.vue"
                },
                {
                    "blank": 15,
                    "code": 302,
                    "comment": 57,
                    "filename": "src\\components\\OverlayMenu.vue"
                },
                {
                    "blank": 15,
                    "code": 302,
                    "comment": 57,
                    "filename": "src\\components\\OverlayMenuDark.vue"
                },
                {
                    "blank": 24,
                    "code": 130,
                    "comment": 9,
                    "filename": "src\\components\\SmcBRIMBilling.vue"
                },
                {
                    "blank": 25,
                    "code": 130,
                    "comment": 10,
                    "filename": "src\\components\\SmcCommerceCloud.vue"
                },
                {
                    "blank": 24,
                    "code": 125,
                    "comment": 9,
                    "filename": "src\\components\\SmcCustomerDataCloud.vue"
                },
                {
                    "blank": 24,
                    "code": 130,
                    "comment": 9,
                    "filename": "src\\components\\SmcDriversPortal.vue"
                },
                {
                    "blank": 24,
                    "code": 130,
                    "comment": 9,
                    "filename": "src\\components\\SmcFleetManagement.vue"
                },
                {
                    "blank": 27,
                    "code": 144,
                    "comment": 9,
                    "filename": "src\\components\\SmcMachineLearning.vue"
                },
                {
                    "blank": 24,
                    "code": 125,
                    "comment": 9,
                    "filename": "src\\components\\SmcMarketingCloud.vue"
                },
                {
                    "blank": 27,
                    "code": 144,
                    "comment": 9,
                    "filename": "src\\components\\SmcSmartCharging.vue"
                },
                {
                    "blank": 24,
                    "code": 125,
                    "comment": 9,
                    "filename": "src\\components\\SmcSubscription.vue"
                },
                {
                    "blank": 9,
                    "code": 88,
                    "comment": 17,
                    "filename": "src\\components\\SolutionMapConvexSquare.vue"
                },
                {
                    "blank": 29,
                    "code": 300,
                    "comment": 58,
                    "filename": "src\\components\\SolutionMapSquare.vue"
                },
                {
                    "blank": 23,
                    "code": 164,
                    "comment": 9,
                    "filename": "src\\components\\SolutionModal.vue"
                },
                {
                    "blank": 16,
                    "code": 157,
                    "comment": 1,
                    "filename": "src\\components\\SolutionPoint.vue"
                },
                {
                    "blank": 32,
                    "code": 207,
                    "comment": 1,
                    "filename": "src\\components\\SolutionPointOrange.vue"
                },
                {
                    "blank": 25,
                    "code": 155,
                    "comment": 0,
                    "filename": "src\\components\\StoryDialer.vue"
                },
                {
                    "blank": 59,
                    "code": 354,
                    "comment": 41,
                    "filename": "src\\components\\StorySlider.vue"
                },
                {
                    "blank": 55,
                    "code": 478,
                    "comment": 3,
                    "filename": "src\\components\\VideoBackground.vue"
                },
                {
                    "blank": 55,
                    "code": 478,
                    "comment": 3,
                    "filename": "src\\components\\VideoBackgroundPod2.vue"
                },
                {
                    "blank": 2,
                    "code": 11,
                    "comment": 0,
                    "filename": "src\\main.js"
                },
                {
                    "blank": 2,
                    "code": 31,
                    "comment": 1,
                    "filename": "src\\registerServiceWorker.js"
                },
                {
                    "blank": 2,
                    "code": 134,
                    "comment": 4,
                    "filename": "src\\router.js"
                },
                {
                    "blank": 62,
                    "code": 209,
                    "comment": 13,
                    "filename": "src\\scripts\\fake3d.js"
                },
                {
                    "blank": 2,
                    "code": 2,
                    "comment": 3,
                    "filename": "src\\scripts\\lib\\gyronorm.js"
                },
                {
                    "blank": 284,
                    "code": 671,
                    "comment": 109,
                    "filename": "src\\scripts\\lib\\orbital-controls.js"
                },
                {
                    "blank": 4,
                    "code": 22,
                    "comment": 1,
                    "filename": "src\\scripts\\shaders\\fragment.glsl"
                },
                {
                    "blank": 1,
                    "code": 4,
                    "comment": 0,
                    "filename": "src\\scripts\\shaders\\vertex.glsl"
                },
                {
                    "blank": 14,
                    "code": 941,
                    "comment": 1,
                    "filename": "src\\scripts\\test.js"
                },
                {
                    "blank": 3,
                    "code": 62,
                    "comment": 5,
                    "filename": "src\\store.js"
                },
                {
                    "blank": 1,
                    "code": 3,
                    "comment": 0,
                    "filename": "src\\styles\\scss\\app.scss"
                },
                {
                    "blank": 0,
                    "code": 5,
                    "comment": 0,
                    "filename": "src\\views\\About.vue"
                },
                {
                    "blank": 13,
                    "code": 358,
                    "comment": 4,
                    "filename": "src\\views\\AiportStoryOne.vue"
                },
                {
                    "blank": 5,
                    "code": 22,
                    "comment": 1,
                    "filename": "src\\views\\Home.vue"
                },
                {
                    "blank": 3,
                    "code": 19,
                    "comment": 1,
                    "filename": "src\\views\\HomePod2.vue"
                },
                {
                    "blank": 3,
                    "code": 19,
                    "comment": 1,
                    "filename": "src\\views\\HomePod2Bahn.vue"
                },
                {
                    "blank": 3,
                    "code": 19,
                    "comment": 1,
                    "filename": "src\\views\\HomePod3.vue"
                },
                {
                    "blank": 13,
                    "code": 309,
                    "comment": 4,
                    "filename": "src\\views\\PayRideThree.vue"
                },
                {
                    "blank": 13,
                    "code": 286,
                    "comment": 4,
                    "filename": "src\\views\\SbahnStoryTwo.vue"
                },
                {
                    "blank": 13,
                    "code": 265,
                    "comment": 3,
                    "filename": "src\\views\\SnapStoryTwo.vue"
                },
                {
                    "blank": 4,
                    "code": 148,
                    "comment": 6,
                    "filename": "src\\views\\SolutionMap.vue"
                },
                {
                    "blank": 3,
                    "code": 22,
                    "comment": 6,
                    "filename": "src\\views\\SolutionMapTest.vue"
                },
                {
                    "blank": 2,
                    "code": 17,
                    "comment": 1,
                    "filename": "src\\views\\StoryDialerView.vue"
                },
                {
                    "blank": 5,
                    "code": 37,
                    "comment": 2,
                    "filename": "src\\views\\Survey.vue"
                },
                {
                    "blank": 14,
                    "code": 307,
                    "comment": 4,
                    "filename": "src\\views\\TrainStationStoryOne.vue"
                },
                {
                    "blank": 4,
                    "code": 44,
                    "comment": 2,
                    "filename": "src\\views\\TransitionAirport.vue"
                },
                {
                    "blank": 4,
                    "code": 44,
                    "comment": 2,
                    "filename": "src\\views\\TransitionCentralStation.vue"
                },
                {
                    "blank": 3,
                    "code": 19,
                    "comment": 1,
                    "filename": "src\\views\\TransitionSettingStage.vue"
                },
                {
                    "blank": 1,
                    "code": 9,
                    "comment": 0,
                    "filename": "vue.config.js"
                },
                {
                    "blank": 12,
                    "code": 98,
                    "comment": 0,
                    "filename": "webpack.config.js"
                }
            ]
        }
    ]
}